%!PS-Adobe-3.0
%%Title: robots.py
%%For: 1027810
%%Creator: VIM - Vi IMproved 9.0 (2022 Jun 28)
%%CreationDate: Fri Dec 09 10:40:58 2022
%%DocumentData: Clean8Bit
%%Orientation: Portrait
%%Pages: (atend)
%%PageOrder: Ascend
%%BoundingBox: 59 49 516 800
%%DocumentMedia: A4 595 842 0 () ()
%%DocumentNeededResources: font Courier
%%+ font Courier-Bold
%%+ font Courier-Oblique
%%+ font Courier-BoldOblique
%%DocumentSuppliedResources: procset VIM-Prolog 1.4 1
%%+ encoding VIM-latin1 1.0 0
%%Requirements: duplex collate color
%%EndComments
%%BeginDefaults
%%PageResources: font Courier
%%+ font Courier-Bold
%%+ font Courier-Oblique
%%+ font Courier-BoldOblique
%%PageMedia: A4
%%EndDefaults
%%BeginProlog
%%BeginResource: procset VIM-Prolog
%%BeginDocument: /usr/share/vim/vim90/print/prolog.ps
%!PS-Adobe-3.0 Resource-ProcSet
%%Title: VIM-Prolog
%%Version: 1.4 1
%%EndComments
% Editing of this file is NOT RECOMMENDED.  You run a very good risk of causing
% all PostScript printing from VIM failing if you do.  PostScript is not called
% a write-only language for nothing!
/packedarray where not{userdict begin/setpacking/pop load def/currentpacking
false def end}{pop}ifelse/CP currentpacking def true setpacking
/bd{bind def}bind def/ld{load def}bd/ed{exch def}bd/d/def ld
/db{dict begin}bd/cde{currentdict end}bd
/T true d/F false d
/SO null d/sv{/SO save d}bd/re{SO restore}bd
/L2 systemdict/languagelevel 2 copy known{get exec}{pop pop 1}ifelse 2 ge d
/m/moveto ld/s/show ld /ms{m s}bd /g/setgray ld/r/setrgbcolor ld/sp{showpage}bd
/gs/gsave ld/gr/grestore ld/cp/currentpoint ld
/ul{gs UW setlinewidth cp UO add 2 copy newpath m 3 1 roll add exch lineto
stroke gr}bd
/bg{gs r cp BO add 4 -2 roll rectfill gr}bd
/sl{90 rotate 0 exch translate}bd
L2{
/sspd{mark exch{setpagedevice}stopped cleartomark}bd
/nc{1 db/NumCopies ed cde sspd}bd
/sps{3 db/Orientation ed[3 1 roll]/PageSize ed/ImagingBBox null d cde sspd}bd
/dt{2 db/Tumble ed/Duplex ed cde sspd}bd
/c{1 db/Collate ed cde sspd}bd
}{
/nc{/#copies ed}bd
/sps{statusdict/setpage get exec}bd
/dt{statusdict/settumble 2 copy known{get exec}{pop pop pop}ifelse
statusdict/setduplexmode 2 copy known{get exec}{pop pop pop}ifelse}bd
/c{pop}bd
}ifelse
/ffs{findfont exch scalefont d}bd/sf{setfont}bd
/ref{1 db findfont dup maxlength dict/NFD ed{exch dup/FID ne{exch NFD 3 1 roll
put}{pop pop}ifelse}forall/Encoding findresource dup length 256 eq{NFD/Encoding
3 -1 roll put}{pop}ifelse NFD dup/FontType get 3 ne{/CharStrings}{/CharProcs}
ifelse 2 copy known{2 copy get dup maxlength dict copy[/questiondown/space]{2
copy known{2 copy get 2 index/.notdef 3 -1 roll put pop exit}if pop}forall put
}{pop pop}ifelse dup NFD/FontName 3 -1 roll put NFD definefont pop end}bd
CP setpacking
(\004)cvn{}bd
% vim:ff=unix:
%%EOF
%%EndDocument
%%EndResource
%%BeginResource: encoding VIM-latin1
%%BeginDocument: /usr/share/vim/vim90/print/latin1.ps
%!PS-Adobe-3.0 Resource-Encoding
%%Title: VIM-latin1
%%Version: 1.0 0
%%EndComments
/VIM-latin1[
/.notdef /.notdef /.notdef /.notdef /.notdef /.notdef /.notdef /.notdef
/.notdef /.notdef /.notdef /.notdef /.notdef /.notdef /.notdef /.notdef
/.notdef /.notdef /.notdef /.notdef /.notdef /.notdef /.notdef /.notdef
/.notdef /.notdef /.notdef /.notdef /.notdef /.notdef /.notdef /.notdef
/space /exclam /quotedbl /numbersign /dollar /percent /ampersand /quotesingle
/parenleft /parenright /asterisk /plus /comma /minus /period /slash
/zero /one /two /three /four /five /six /seven
/eight /nine /colon /semicolon /less /equal /greater /question
/at /A /B /C /D /E /F /G
/H /I /J /K /L /M /N /O
/P /Q /R /S /T /U /V /W
/X /Y /Z /bracketleft /backslash /bracketright /asciicircum /underscore
/grave /a /b /c /d /e /f /g
/h /i /j /k /l /m /n /o
/p /q /r /s /t /u /v /w
/x /y /z /braceleft /bar /braceright /asciitilde /.notdef
/.notdef /.notdef /.notdef /.notdef /.notdef /.notdef /.notdef /.notdef
/.notdef /.notdef /.notdef /.notdef /.notdef /.notdef /.notdef /.notdef
/.notdef /.notdef /.notdef /.notdef /.notdef /.notdef /.notdef /.notdef
/.notdef /.notdef /.notdef /.notdef /.notdef /.notdef /.notdef /.notdef
/space /exclamdown /cent /sterling /currency /yen /brokenbar /section
/dieresis /copyright /ordfeminine /guillemotleft /logicalnot /hyphen /registered /macron
/degree /plusminus /twosuperior /threesuperior /acute /mu /paragraph /periodcentered
/cedilla /onesuperior /ordmasculine /guillemotright /onequarter /onehalf /threequarters /questiondown
/Agrave /Aacute /Acircumflex /Atilde /Adieresis /Aring /AE /Ccedilla
/Egrave /Eacute /Ecircumflex /Edieresis /Igrave /Iacute /Icircumflex /Idieresis
/Eth /Ntilde /Ograve /Oacute /Ocircumflex /Otilde /Odieresis /multiply
/Oslash /Ugrave /Uacute /Ucircumflex /Udieresis /Yacute /Thorn /germandbls
/agrave /aacute /acircumflex /atilde /adieresis /aring /ae /ccedilla
/egrave /eacute /ecircumflex /edieresis /igrave /iacute /icircumflex /idieresis
/eth /ntilde /ograve /oacute /ocircumflex /otilde /odieresis /divide
/oslash /ugrave /uacute /ucircumflex /udieresis /yacute /thorn /ydieresis]
/Encoding defineresource pop
% vim:ff=unix:
%%EOF
%%EndDocument
%%EndResource
%%EndProlog
%%BeginSetup
595 842 0 sps
1 nc
T F dt
T c
%%IncludeResource: font Courier
/_F0 /VIM-latin1 /Courier ref
/F0 10 /_F0 ffs
%%IncludeResource: font Courier-Bold
/_F1 /VIM-latin1 /Courier-Bold ref
/F1 10 /_F1 ffs
%%IncludeResource: font Courier-Oblique
/_F2 /VIM-latin1 /Courier-Oblique ref
/F2 10 /_F2 ffs
%%IncludeResource: font Courier-BoldOblique
/_F3 /VIM-latin1 /Courier-BoldOblique ref
/F3 10 /_F3 ffs
/UO -1 d
/UW 0.5 d
/BO -2.5 d
%%EndSetup
%%Page: 1 1
%%BeginPageSetup
sv
0 g
F0 sf
%%EndPageSetup
F1 sf
(robots.py                                                                     Page 1)59.5 792.4 ms
F0 sf
0 0.498 0.498 r
(     1)59.5 772.4 ms
0 0 0.376 r
(from)107.5 772.4 ms
0 g
( gasp )s
0 0 0.376 r
(import)s
0 g
( *)s
0 0.498 0.498 r
(     2)59.5 762.4 ms
0 0 0.376 r
(import)107.5 762.4 ms
0 g
( random)s
0 0.498 0.498 r
(     3)59.5 752.4 ms
(     4)59.5 742.4 ms
(     5)59.5 732.4 ms
(class)107.5 732.4 ms
0 g
( )s
F1 sf
0.498 0.498 0 r
(Player)s
F0 sf
0 g
(:)s
0 0.498 0.498 r
(     6)59.5 722.4 ms
0 g
(    )107.5 722.4 ms
0 0.498 0.498 r
(pass)s
(     7)59.5 712.4 ms
(     8)59.5 702.4 ms
(     9)59.5 692.4 ms
(class)107.5 692.4 ms
0 g
( )s
F1 sf
0.498 0.498 0 r
(Robot)s
F0 sf
0 g
(:)s
0 0.498 0.498 r
(    10)59.5 682.4 ms
0 g
(    )107.5 682.4 ms
0 0.498 0.498 r
(pass)s
(    11)59.5 672.4 ms
(    12)59.5 662.4 ms
(    13)59.5 652.4 ms
(def)107.5 652.4 ms
0 g
( )s
F1 sf
0.498 0.498 0 r
(place_player)s
F0 sf
0 g
(\(\):)s
0 0.498 0.498 r
(    14)59.5 642.4 ms
0 g
(    )107.5 642.4 ms
0 0.498 0.498 r
(global)s
0 g
( player)s
0 0.498 0.498 r
(    15)59.5 632.4 ms
(    16)59.5 622.4 ms
0 g
(    player = Player\(\))107.5 622.4 ms
0 0.498 0.498 r
(    17)59.5 612.4 ms
0 g
(    player.x = random.randint\()107.5 612.4 ms
0.498 0.125 0.498 r
(0)s
0 g
(, )s
0.498 0.125 0.498 r
(63)s
0 g
(\))s
0 0.498 0.498 r
(    18)59.5 602.4 ms
0 g
(    player.y = random.randint\()107.5 602.4 ms
0.498 0.125 0.498 r
(0)s
0 g
(, )s
0.498 0.125 0.498 r
(47)s
0 g
(\))s
0 0.498 0.498 r
(    19)59.5 592.4 ms
(    20)59.5 582.4 ms
(    21)59.5 572.4 ms
(def)107.5 572.4 ms
0 g
( )s
F1 sf
0.498 0.498 0 r
(safely_place_player)s
F0 sf
0 g
(\(\):)s
0 0.498 0.498 r
(    22)59.5 562.4 ms
0 g
(    )107.5 562.4 ms
0 0.498 0.498 r
(global)s
0 g
( player)s
0 0.498 0.498 r
(    23)59.5 552.4 ms
(    24)59.5 542.4 ms
0 g
(    place_player\(\))107.5 542.4 ms
0 0.498 0.498 r
(    25)59.5 532.4 ms
(    26)59.5 522.4 ms
0 g
(    )107.5 522.4 ms
0 0.498 0.498 r
(while)s
0 g
( collided\(player, robots\):)s
0 0.498 0.498 r
(    27)59.5 512.4 ms
0 g
(        place_player\(\))107.5 512.4 ms
0 0.498 0.498 r
(    28)59.5 502.4 ms
(    29)59.5 492.4 ms
0 g
(    player.shape = Circle\(\()107.5 492.4 ms
0.498 0.125 0.498 r
(10)s
0 g
(*player.x+)s
0.498 0.125 0.498 r
(5)s
0 g
(, )s
0.498 0.125 0.498 r
(10)s
0 g
(*player.y+)s
0.498 0.125 0.498 r
(5)s
0 g
(\), )s
0.498 0.125 0.498 r
(5)s
0 g
(, filled=)s
F1 sf
0.498 0.498 0 r
(True)s
F0 sf
0 g
(\))s
0 0.498 0.498 r
(    30)59.5 482.4 ms
(    31)59.5 472.4 ms
(    32)59.5 462.4 ms
(def)107.5 462.4 ms
0 g
( )s
F1 sf
0.498 0.498 0 r
(place_robots)s
F0 sf
0 g
(\(numbots\):)s
0 0.498 0.498 r
(    33)59.5 452.4 ms
0 g
(    )107.5 452.4 ms
0 0.498 0.498 r
(global)s
0 g
( robots)s
0 0.498 0.498 r
(    34)59.5 442.4 ms
(    35)59.5 432.4 ms
0 g
(    robots = [])107.5 432.4 ms
0 0.498 0.498 r
(    36)59.5 422.4 ms
(    37)59.5 412.4 ms
0 g
(    )107.5 412.4 ms
0 0.498 0.498 r
(while)s
0 g
( )s
F1 sf
0.498 0.498 0 r
(len)s
F0 sf
0 g
(\(robots\) < numbots:)s
0 0.498 0.498 r
(    38)59.5 402.4 ms
0 g
(        robot = Robot\(\))107.5 402.4 ms
0 0.498 0.498 r
(    39)59.5 392.4 ms
0 g
(        robot.x = random.randint\()107.5 392.4 ms
0.498 0.125 0.498 r
(0)s
0 g
(, )s
0.498 0.125 0.498 r
(63)s
0 g
(\))s
0 0.498 0.498 r
(    40)59.5 382.4 ms
0 g
(        robot.y = random.randint\()107.5 382.4 ms
0.498 0.125 0.498 r
(0)s
0 g
(, )s
0.498 0.125 0.498 r
(47)s
0 g
(\))s
0 0.498 0.498 r
(    41)59.5 372.4 ms
0 g
(        robot.junk = )107.5 372.4 ms
F1 sf
0.498 0.498 0 r
(False)s
F0 sf
0 0.498 0.498 r
(    42)59.5 362.4 ms
0 g
(        robot.shape = Box\(\()107.5 362.4 ms
0.498 0.125 0.498 r
(10)s
0 g
(*robot.x, )s
0.498 0.125 0.498 r
(10)s
0 g
(*robot.y\), )s
0.498 0.125 0.498 r
(10)s
0 g
(, )s
0.498 0.125 0.498 r
(10)s
0 g
(\))s
0 0.498 0.498 r
(    43)59.5 352.4 ms
0 g
(        robots.append\(robot\))107.5 352.4 ms
0 0.498 0.498 r
(    44)59.5 342.4 ms
(    45)59.5 332.4 ms
re sp
%%PageTrailer
%%Page: 2 2
%%BeginPageSetup
sv
0 g
F0 sf
%%EndPageSetup
F1 sf
0 g
(robots.py                                                                     Page 2)59.5 792.4 ms
F0 sf
0 0.498 0.498 r
(    46)59.5 762.4 ms
(def)107.5 762.4 ms
0 g
( )s
F1 sf
0.498 0.498 0 r
(move_player)s
F0 sf
0 g
(\(\):)s
0 0.498 0.498 r
(    47)59.5 752.4 ms
0 g
(    )107.5 752.4 ms
0 0.498 0.498 r
(global)s
0 g
( player)s
0 0.498 0.498 r
(    48)59.5 742.4 ms
(    49)59.5 732.4 ms
0 g
(    key = update_when\()107.5 732.4 ms
0.498 0.125 0.498 r
("key_pressed")s
0 g
(\))s
0 0.498 0.498 r
(    50)59.5 722.4 ms
(    51)59.5 712.4 ms
0 g
(    )107.5 712.4 ms
0 0.498 0.498 r
(while)s
0 g
( key )s
0 0.498 0.498 r
(in)s
0 g
( [)s
0.498 0.125 0.498 r
("KP_5")s
0 g
(, )s
0.498 0.125 0.498 r
("s")s
0 g
(, )s
0.498 0.125 0.498 r
("k")s
0 g
(]:)s
0 0.498 0.498 r
(    52)59.5 702.4 ms
0 g
(        remove_from_screen\(player.shape\))107.5 702.4 ms
0 0.498 0.498 r
(    53)59.5 692.4 ms
0 g
(        safely_place_player\(\))107.5 692.4 ms
0 0.498 0.498 r
(    54)59.5 682.4 ms
0 g
(        key = update_when\()107.5 682.4 ms
0.498 0.125 0.498 r
("key_pressed")s
0 g
(\))s
0 0.498 0.498 r
(    55)59.5 672.4 ms
(    56)59.5 662.4 ms
0 g
(    )107.5 662.4 ms
0 0.498 0.498 r
(if)s
0 g
( key )s
0 0.498 0.498 r
(in)s
0 g
( )s
0.498 0.125 0.498 r
("1zm")s
0 g
(:)s
0 0.498 0.498 r
(    57)59.5 652.4 ms
0 g
(        )107.5 652.4 ms
0 0.498 0.498 r
(if)s
0 g
( player.x > )s
0.498 0.125 0.498 r
(0)s
0 g
(:)s
0 0.498 0.498 r
(    58)59.5 642.4 ms
0 g
(            player.x -= )107.5 642.4 ms
0.498 0.125 0.498 r
(1)s
0 0.498 0.498 r
(    59)59.5 632.4 ms
0 g
(        )107.5 632.4 ms
0 0.498 0.498 r
(if)s
0 g
( player.y > )s
0.498 0.125 0.498 r
(0)s
0 g
(:)s
0 0.498 0.498 r
(    60)59.5 622.4 ms
0 g
(            player.y -= )107.5 622.4 ms
0.498 0.125 0.498 r
(1)s
0 0.498 0.498 r
(    61)59.5 612.4 ms
0 g
(    )107.5 612.4 ms
0 0.498 0.498 r
(elif)s
0 g
( key )s
0 0.498 0.498 r
(in)s
0 g
( [)s
0.498 0.125 0.498 r
("KP_2")s
0 g
(, )s
0.498 0.125 0.498 r
("x")s
0 g
(, )s
0.498 0.125 0.498 r
("comma")s
0 g
(] )s
0 0.498 0.498 r
(and)s
0 g
( player.y > )s
0.498 0.125 0.498 r
(0)s
0 g
(:)s
0 0.498 0.498 r
(    62)59.5 602.4 ms
0 g
(        player.y -= )107.5 602.4 ms
0.498 0.125 0.498 r
(1)s
0 0.498 0.498 r
(    63)59.5 592.4 ms
0 g
(    )107.5 592.4 ms
0 0.498 0.498 r
(elif)s
0 g
( key )s
0 0.498 0.498 r
(in)s
0 g
( [)s
0.498 0.125 0.498 r
("KP_3")s
0 g
(, )s
0.498 0.125 0.498 r
("c")s
0 g
(, )s
0.498 0.125 0.498 r
("period")s
0 g
(]:)s
0 0.498 0.498 r
(    64)59.5 582.4 ms
0 g
(        )107.5 582.4 ms
0 0.498 0.498 r
(if)s
0 g
( player.x < )s
0.498 0.125 0.498 r
(63)s
0 g
(:)s
0 0.498 0.498 r
(    65)59.5 572.4 ms
0 g
(            player.x += )107.5 572.4 ms
0.498 0.125 0.498 r
(1)s
0 0.498 0.498 r
(    66)59.5 562.4 ms
0 g
(        )107.5 562.4 ms
0 0.498 0.498 r
(if)s
0 g
( player.y > )s
0.498 0.125 0.498 r
(0)s
0 g
(:)s
0 0.498 0.498 r
(    67)59.5 552.4 ms
0 g
(            player.y -= )107.5 552.4 ms
0.498 0.125 0.498 r
(1)s
0 0.498 0.498 r
(    68)59.5 542.4 ms
0 g
(    )107.5 542.4 ms
0 0.498 0.498 r
(elif)s
0 g
( key )s
0 0.498 0.498 r
(in)s
0 g
( [)s
0.498 0.125 0.498 r
("KP_4")s
0 g
(, )s
0.498 0.125 0.498 r
("a")s
0 g
(, )s
0.498 0.125 0.498 r
("j")s
0 g
(] )s
0 0.498 0.498 r
(and)s
0 g
( player.x > )s
0.498 0.125 0.498 r
(0)s
0 g
(:)s
0 0.498 0.498 r
(    69)59.5 532.4 ms
0 g
(        player.x -= )107.5 532.4 ms
0.498 0.125 0.498 r
(1)s
0 0.498 0.498 r
(    70)59.5 522.4 ms
0 g
(    )107.5 522.4 ms
0 0.498 0.498 r
(elif)s
0 g
( key )s
0 0.498 0.498 r
(in)s
0 g
( [)s
0.498 0.125 0.498 r
("KP_6")s
0 g
(, )s
0.498 0.125 0.498 r
("d")s
0 g
(, )s
0.498 0.125 0.498 r
("l")s
0 g
(] )s
0 0.498 0.498 r
(and)s
0 g
( player.x < )s
0.498 0.125 0.498 r
(63)s
0 g
(:)s
0 0.498 0.498 r
(    71)59.5 512.4 ms
0 g
(        player.x += )107.5 512.4 ms
0.498 0.125 0.498 r
(1)s
0 0.498 0.498 r
(    72)59.5 502.4 ms
0 g
(    )107.5 502.4 ms
0 0.498 0.498 r
(elif)s
0 g
( key )s
0 0.498 0.498 r
(in)s
0 g
( [)s
0.498 0.125 0.498 r
("KP_7")s
0 g
(, )s
0.498 0.125 0.498 r
("q")s
0 g
(, )s
0.498 0.125 0.498 r
("u")s
0 g
(]:)s
0 0.498 0.498 r
(    73)59.5 492.4 ms
0 g
(        )107.5 492.4 ms
0 0.498 0.498 r
(if)s
0 g
( player.x > )s
0.498 0.125 0.498 r
(0)s
0 g
(:)s
0 0.498 0.498 r
(    74)59.5 482.4 ms
0 g
(            player.x -= )107.5 482.4 ms
0.498 0.125 0.498 r
(1)s
0 0.498 0.498 r
(    75)59.5 472.4 ms
0 g
(        )107.5 472.4 ms
0 0.498 0.498 r
(if)s
0 g
( player.y < )s
0.498 0.125 0.498 r
(47)s
0 g
(:)s
0 0.498 0.498 r
(    76)59.5 462.4 ms
0 g
(            player.y += )107.5 462.4 ms
0.498 0.125 0.498 r
(1)s
0 0.498 0.498 r
(    77)59.5 452.4 ms
0 g
(    )107.5 452.4 ms
0 0.498 0.498 r
(elif)s
0 g
( key )s
0 0.498 0.498 r
(in)s
0 g
( [)s
0.498 0.125 0.498 r
("KP_8")s
0 g
(, )s
0.498 0.125 0.498 r
("w")s
0 g
(, )s
0.498 0.125 0.498 r
("i")s
0 g
(] )s
0 0.498 0.498 r
(and)s
0 g
( player.y < )s
0.498 0.125 0.498 r
(47)s
0 g
(:)s
0 0.498 0.498 r
(    78)59.5 442.4 ms
0 g
(        player.y += )107.5 442.4 ms
0.498 0.125 0.498 r
(1)s
0 0.498 0.498 r
(    79)59.5 432.4 ms
0 g
(    )107.5 432.4 ms
0 0.498 0.498 r
(elif)s
0 g
( key )s
0 0.498 0.498 r
(in)s
0 g
( [)s
0.498 0.125 0.498 r
("KP_9")s
0 g
(, )s
0.498 0.125 0.498 r
("r")s
0 g
(, )s
0.498 0.125 0.498 r
("o")s
0 g
(]:)s
0 0.498 0.498 r
(    80)59.5 422.4 ms
0 g
(        )107.5 422.4 ms
0 0.498 0.498 r
(if)s
0 g
( player.x < )s
0.498 0.125 0.498 r
(63)s
0 g
(:)s
0 0.498 0.498 r
(    81)59.5 412.4 ms
0 g
(            player.x += )107.5 412.4 ms
0.498 0.125 0.498 r
(1)s
0 0.498 0.498 r
(    82)59.5 402.4 ms
0 g
(        )107.5 402.4 ms
0 0.498 0.498 r
(if)s
0 g
( player.y < )s
0.498 0.125 0.498 r
(47)s
0 g
(:)s
0 0.498 0.498 r
(    83)59.5 392.4 ms
0 g
(            player.y += )107.5 392.4 ms
0.498 0.125 0.498 r
(1)s
0 0.498 0.498 r
(    84)59.5 382.4 ms
(    85)59.5 372.4 ms
0 g
(    move_to\(player.shape, \()107.5 372.4 ms
0.498 0.125 0.498 r
(10)s
0 g
(*player.x+)s
0.498 0.125 0.498 r
(5)s
0 g
(, )s
0.498 0.125 0.498 r
(10)s
0 g
(*player.y+)s
0.498 0.125 0.498 r
(5)s
0 g
(\)\))s
0 0.498 0.498 r
(    86)59.5 362.4 ms
(    87)59.5 352.4 ms
re sp
%%PageTrailer
%%Page: 3 3
%%BeginPageSetup
sv
0 g
F0 sf
%%EndPageSetup
F1 sf
0 g
(robots.py                                                                     Page 3)59.5 792.4 ms
F0 sf
0 0.498 0.498 r
(    88)59.5 762.4 ms
(def)107.5 762.4 ms
0 g
( )s
F1 sf
0.498 0.498 0 r
(move_robots)s
F0 sf
0 g
(\(\):)s
0 0.498 0.498 r
(    89)59.5 752.4 ms
0 g
(    )107.5 752.4 ms
0 0.498 0.498 r
(global)s
0 g
( robots)s
0 0.498 0.498 r
(    90)59.5 742.4 ms
(    91)59.5 732.4 ms
0 g
(    )107.5 732.4 ms
0 0.498 0.498 r
(for)s
0 g
( robot )s
0 0.498 0.498 r
(in)s
0 g
( robots:)s
0 0.498 0.498 r
(    92)59.5 722.4 ms
0 g
(        )107.5 722.4 ms
0 0.498 0.498 r
(if)s
0 g
( )s
0 0.498 0.498 r
(not)s
0 g
( robot.junk:)s
0 0.498 0.498 r
(    93)59.5 712.4 ms
0 g
(            )107.5 712.4 ms
0 0.498 0.498 r
(if)s
0 g
( robot.x > player.x:)s
0 0.498 0.498 r
(    94)59.5 702.4 ms
0 g
(                robot.x -= )107.5 702.4 ms
0.498 0.125 0.498 r
(1)s
0 0.498 0.498 r
(    95)59.5 692.4 ms
0 g
(            )107.5 692.4 ms
0 0.498 0.498 r
(elif)s
0 g
( robot.x < player.x:)s
0 0.498 0.498 r
(    96)59.5 682.4 ms
0 g
(                robot.x += )107.5 682.4 ms
0.498 0.125 0.498 r
(1)s
0 0.498 0.498 r
(    97)59.5 672.4 ms
(    98)59.5 662.4 ms
0 g
(            )107.5 662.4 ms
0 0.498 0.498 r
(if)s
0 g
( robot.y > player.y:)s
0 0.498 0.498 r
(    99)59.5 652.4 ms
0 g
(                robot.y -= )107.5 652.4 ms
0.498 0.125 0.498 r
(1)s
0 0.498 0.498 r
(   100)59.5 642.4 ms
0 g
(            )107.5 642.4 ms
0 0.498 0.498 r
(elif)s
0 g
( robot.y < player.y:)s
0 0.498 0.498 r
(   101)59.5 632.4 ms
0 g
(                robot.y += )107.5 632.4 ms
0.498 0.125 0.498 r
(1)s
0 0.498 0.498 r
(   102)59.5 622.4 ms
(   103)59.5 612.4 ms
0 g
(            move_to\(robot.shape, \()107.5 612.4 ms
0.498 0.125 0.498 r
(10)s
0 g
( * robot.x, )s
0.498 0.125 0.498 r
(10)s
0 g
( * robot.y\)\))s
0 0.498 0.498 r
(   104)59.5 602.4 ms
(   105)59.5 592.4 ms
(   106)59.5 582.4 ms
(def)107.5 582.4 ms
0 g
( )s
F1 sf
0.498 0.498 0 r
(collided)s
F0 sf
0 g
(\(thing1, list_of_things\):)s
0 0.498 0.498 r
(   107)59.5 572.4 ms
0 g
(    )107.5 572.4 ms
0 0.498 0.498 r
(for)s
0 g
( thing2 )s
0 0.498 0.498 r
(in)s
0 g
( list_of_things:)s
0 0.498 0.498 r
(   108)59.5 562.4 ms
0 g
(        )107.5 562.4 ms
0 0.498 0.498 r
(if)s
0 g
( thing1.x == thing2.x )s
0 0.498 0.498 r
(and)s
0 g
( thing1.y == thing2.y:)s
0 0.498 0.498 r
(   109)59.5 552.4 ms
0 g
(            )107.5 552.4 ms
0 0.498 0.498 r
(return)s
0 g
( )s
F1 sf
0.498 0.498 0 r
(True)s
F0 sf
0 0.498 0.498 r
(   110)59.5 542.4 ms
0 g
(    )107.5 542.4 ms
0 0.498 0.498 r
(return)s
0 g
( )s
F1 sf
0.498 0.498 0 r
(False)s
F0 sf
0 0.498 0.498 r
(   111)59.5 532.4 ms
(   112)59.5 522.4 ms
(   113)59.5 512.4 ms
(def)107.5 512.4 ms
0 g
( )s
F1 sf
0.498 0.498 0 r
(robot_crashed)s
F0 sf
0 g
(\(the_bot\):)s
0 0.498 0.498 r
(   114)59.5 502.4 ms
0 g
(    )107.5 502.4 ms
0 0.498 0.498 r
(for)s
0 g
( a_bot )s
0 0.498 0.498 r
(in)s
0 g
( robots:)s
0 0.498 0.498 r
(   115)59.5 492.4 ms
0 g
(        )107.5 492.4 ms
0 0.498 0.498 r
(if)s
0 g
( a_bot == the_bot:)s
0 0.498 0.498 r
(   116)59.5 482.4 ms
0 g
(            )107.5 482.4 ms
0 0.498 0.498 r
(return)s
0 g
( )s
F1 sf
0.498 0.498 0 r
(False)s
F0 sf
0 0.498 0.498 r
(   117)59.5 472.4 ms
0 g
(        )107.5 472.4 ms
0 0.498 0.498 r
(if)s
0 g
( a_bot.x == the_bot.x )s
0 0.498 0.498 r
(and)s
0 g
( a_bot.y == the_bot.y:)s
0 0.498 0.498 r
(   118)59.5 462.4 ms
0 g
(            )107.5 462.4 ms
0 0.498 0.498 r
(return)s
0 g
( a_bot)s
0 0.498 0.498 r
(   119)59.5 452.4 ms
0 g
(    )107.5 452.4 ms
0 0.498 0.498 r
(return)s
0 g
( )s
F1 sf
0.498 0.498 0 r
(False)s
F0 sf
0 0.498 0.498 r
(   120)59.5 442.4 ms
(   121)59.5 432.4 ms
re sp
%%PageTrailer
%%Page: 4 4
%%BeginPageSetup
sv
0 g
F0 sf
%%EndPageSetup
F1 sf
0 g
(robots.py                                                                     Page 4)59.5 792.4 ms
F0 sf
0 0.498 0.498 r
(   122)59.5 762.4 ms
(def)107.5 762.4 ms
0 g
( )s
F1 sf
0.498 0.498 0 r
(check_collisions)s
F0 sf
0 g
(\(\):)s
0 0.498 0.498 r
(   123)59.5 752.4 ms
0 g
(    )107.5 752.4 ms
0 0.498 0.498 r
(global)s
0 g
( finished, robots)s
0 0.498 0.498 r
(   124)59.5 742.4 ms
(   125)59.5 732.4 ms
0 g
(    )107.5 732.4 ms
0.498 0.498 0 r
(# Handle player crashes into robot)s
0 0.498 0.498 r
(   126)59.5 722.4 ms
0 g
(    )107.5 722.4 ms
0 0.498 0.498 r
(if)s
0 g
( collided\(player, robots\):)s
0 0.498 0.498 r
(   127)59.5 712.4 ms
0 g
(        finished = )107.5 712.4 ms
F1 sf
0.498 0.498 0 r
(True)s
F0 sf
0 0.498 0.498 r
(   128)59.5 702.4 ms
0 g
(        Text\()107.5 702.4 ms
0.498 0.125 0.498 r
("You've been caught!")s
0 g
(, \()s
0.498 0.125 0.498 r
(320)s
0 g
(, )s
0.498 0.125 0.498 r
(240)s
0 g
(\), size=)s
0.498 0.125 0.498 r
(36)s
0 g
(\))s
0 0.498 0.498 r
(   129)59.5 692.4 ms
0 g
(        sleep\()107.5 692.4 ms
0.498 0.125 0.498 r
(3)s
0 g
(\))s
0 0.498 0.498 r
(   130)59.5 682.4 ms
0 g
(        )107.5 682.4 ms
0 0.498 0.498 r
(return)s
(   131)59.5 672.4 ms
(   132)59.5 662.4 ms
0 g
(    )107.5 662.4 ms
0.498 0.498 0 r
(# Handle robots crashing into each other)s
0 0.498 0.498 r
(   133)59.5 652.4 ms
0 g
(    surviving_robots = [])107.5 652.4 ms
0 0.498 0.498 r
(   134)59.5 642.4 ms
(   135)59.5 632.4 ms
0 g
(    )107.5 632.4 ms
0 0.498 0.498 r
(for)s
0 g
( robot )s
0 0.498 0.498 r
(in)s
0 g
( robots:)s
0 0.498 0.498 r
(   136)59.5 622.4 ms
0 g
(        )107.5 622.4 ms
0 0.498 0.498 r
(if)s
0 g
( collided\(robot, junk\):)s
0 0.498 0.498 r
(   137)59.5 612.4 ms
0 g
(            )107.5 612.4 ms
0 0.498 0.498 r
(continue)s
(   138)59.5 602.4 ms
(   139)59.5 592.4 ms
0 g
(        jbot = robot_crashed\(robot\))107.5 592.4 ms
0 0.498 0.498 r
(   140)59.5 582.4 ms
(   141)59.5 572.4 ms
0 g
(        )107.5 572.4 ms
0 0.498 0.498 r
(if)s
0 g
( )s
0 0.498 0.498 r
(not)s
0 g
( jbot:)s
0 0.498 0.498 r
(   142)59.5 562.4 ms
0 g
(            surviving_robots.append\(robot\))107.5 562.4 ms
0 0.498 0.498 r
(   143)59.5 552.4 ms
0 g
(        )107.5 552.4 ms
0 0.498 0.498 r
(else)s
0 g
(:)s
0 0.498 0.498 r
(   144)59.5 542.4 ms
0 g
(            remove_from_screen\(jbot.shape\))107.5 542.4 ms
0 0.498 0.498 r
(   145)59.5 532.4 ms
0 g
(            jbot.junk = )107.5 532.4 ms
F1 sf
0.498 0.498 0 r
(True)s
F0 sf
0 0.498 0.498 r
(   146)59.5 522.4 ms
0 g
(            jbot.shape = Box\()107.5 522.4 ms
0 0.498 0.498 r
(   147)59.5 512.4 ms
0 g
(                \()107.5 512.4 ms
0.498 0.125 0.498 r
(10)s
0 g
( * jbot.x, )s
0.498 0.125 0.498 r
(10)s
0 g
( * jbot.y\), )s
0.498 0.125 0.498 r
(10)s
0 g
(, )s
0.498 0.125 0.498 r
(10)s
0 g
(, filled=)s
F1 sf
0.498 0.498 0 r
(True)s
F0 sf
0 0.498 0.498 r
(   148)59.5 502.4 ms
0 g
(            \))107.5 502.4 ms
0 0.498 0.498 r
(   149)59.5 492.4 ms
0 g
(            junk.append\(jbot\))107.5 492.4 ms
0 0.498 0.498 r
(   150)59.5 482.4 ms
(   151)59.5 472.4 ms
0 g
(    robots = [])107.5 472.4 ms
0 0.498 0.498 r
(   152)59.5 462.4 ms
(   153)59.5 452.4 ms
0 g
(    )107.5 452.4 ms
0 0.498 0.498 r
(for)s
0 g
( robot )s
0 0.498 0.498 r
(in)s
0 g
( surviving_robots:)s
0 0.498 0.498 r
(   154)59.5 442.4 ms
0 g
(        )107.5 442.4 ms
0 0.498 0.498 r
(if)s
0 g
( )s
0 0.498 0.498 r
(not)s
0 g
( collided\(robot, junk\):)s
0 0.498 0.498 r
(   155)59.5 432.4 ms
0 g
(            robots.append\(robot\))107.5 432.4 ms
0 0.498 0.498 r
(   156)59.5 422.4 ms
(   157)59.5 412.4 ms
0 g
(    )107.5 412.4 ms
0 0.498 0.498 r
(if)s
0 g
( )s
0 0.498 0.498 r
(not)s
0 g
( robots:)s
0 0.498 0.498 r
(   158)59.5 402.4 ms
0 g
(        finished = )107.5 402.4 ms
F1 sf
0.498 0.498 0 r
(True)s
F0 sf
0 0.498 0.498 r
(   159)59.5 392.4 ms
0 g
(        Text\()107.5 392.4 ms
0.498 0.125 0.498 r
("You win!")s
0 g
(, \()s
0.498 0.125 0.498 r
(160)s
0 g
(, )s
0.498 0.125 0.498 r
(240)s
0 g
(\), size=)s
0.498 0.125 0.498 r
(36)s
0 g
(\))s
0 0.498 0.498 r
(   160)59.5 382.4 ms
0 g
(        sleep\()107.5 382.4 ms
0.498 0.125 0.498 r
(3)s
0 g
(\))s
0 0.498 0.498 r
(   161)59.5 372.4 ms
0 g
(        )107.5 372.4 ms
0 0.498 0.498 r
(return)s
(   162)59.5 362.4 ms
(   163)59.5 352.4 ms
re sp
%%PageTrailer
%%Page: 5 5
%%BeginPageSetup
sv
0 g
F0 sf
%%EndPageSetup
F1 sf
0 g
(robots.py                                                                     Page 5)59.5 792.4 ms
F0 sf
0 0.498 0.498 r
(   164)59.5 762.4 ms
0 g
(begin_graphics\(\))107.5 762.4 ms
0 0.498 0.498 r
(   165)59.5 752.4 ms
0 g
(game_over = )107.5 752.4 ms
F1 sf
0.498 0.498 0 r
(False)s
F0 sf
0 0.498 0.498 r
(   166)59.5 742.4 ms
0 g
(numbots = )107.5 742.4 ms
0.498 0.125 0.498 r
(4)s
0 0.498 0.498 r
(   167)59.5 732.4 ms
(   168)59.5 722.4 ms
(while)107.5 722.4 ms
0 g
( )s
0 0.498 0.498 r
(not)s
0 g
( game_over:)s
0 0.498 0.498 r
(   169)59.5 712.4 ms
0 g
(    finished = )107.5 712.4 ms
F1 sf
0.498 0.498 0 r
(False)s
F0 sf
0 0.498 0.498 r
(   170)59.5 702.4 ms
0 g
(    junk = [])107.5 702.4 ms
0 0.498 0.498 r
(   171)59.5 692.4 ms
(   172)59.5 682.4 ms
0 g
(    place_robots\(numbots\))107.5 682.4 ms
0 0.498 0.498 r
(   173)59.5 672.4 ms
0 g
(    safely_place_player\(\))107.5 672.4 ms
0 0.498 0.498 r
(   174)59.5 662.4 ms
(   175)59.5 652.4 ms
0 g
(    )107.5 652.4 ms
0 0.498 0.498 r
(while)s
0 g
( )s
0 0.498 0.498 r
(not)s
0 g
( finished:)s
0 0.498 0.498 r
(   176)59.5 642.4 ms
0 g
(        move_player\(\))107.5 642.4 ms
0 0.498 0.498 r
(   177)59.5 632.4 ms
0 g
(        move_robots\(\))107.5 632.4 ms
0 0.498 0.498 r
(   178)59.5 622.4 ms
0 g
(        check_collisions\(\))107.5 622.4 ms
0 0.498 0.498 r
(   179)59.5 612.4 ms
(   180)59.5 602.4 ms
0 g
(    )107.5 602.4 ms
0 0.498 0.498 r
(if)s
0 g
( numbots < )s
0.498 0.125 0.498 r
(17)s
0 g
(:)s
0 0.498 0.498 r
(   181)59.5 592.4 ms
0 g
(        numbots *= )107.5 592.4 ms
0.498 0.125 0.498 r
(2)s
0 0.498 0.498 r
(   182)59.5 582.4 ms
0 g
(        clear_screen\(\))107.5 582.4 ms
0 0.498 0.498 r
(   183)59.5 572.4 ms
0 g
(    )107.5 572.4 ms
0 0.498 0.498 r
(else)s
0 g
(:)s
0 0.498 0.498 r
(   184)59.5 562.4 ms
0 g
(        game_over = )107.5 562.4 ms
F1 sf
0.498 0.498 0 r
(True)s
F0 sf
0 0.498 0.498 r
(   185)59.5 552.4 ms
(   186)59.5 542.4 ms
0 g
(end_graphics\(\))107.5 542.4 ms
re sp
%%PageTrailer
%%Trailer
%%Pages: 5
%%EOF
